%YAML 1.1
%TAG !u! tag:unity3d.com,2011:
--- !u!1001 &7218880482539877619
PrefabInstance:
  m_ObjectHideFlags: 0
  serializedVersion: 2
  m_Modification:
    m_TransformParent: {fileID: 0}
    m_Modifications:
    - target: {fileID: 5183649388085743961, guid: e2d180dbe1a9718419cd3f191a0eaa04,
        type: 3}
      propertyPath: m_Name
      value: VirusNormal
      objectReference: {fileID: 0}
    - target: {fileID: 5183649388085743960, guid: e2d180dbe1a9718419cd3f191a0eaa04,
        type: 3}
      propertyPath: m_LocalPosition.x
      value: -7.41
      objectReference: {fileID: 0}
    - target: {fileID: 5183649388085743960, guid: e2d180dbe1a9718419cd3f191a0eaa04,
        type: 3}
      propertyPath: m_LocalPosition.y
      value: 2
      objectReference: {fileID: 0}
    - target: {fileID: 5183649388085743960, guid: e2d180dbe1a9718419cd3f191a0eaa04,
        type: 3}
      propertyPath: m_LocalPosition.z
      value: -11.07
      objectReference: {fileID: 0}
    - target: {fileID: 5183649388085743960, guid: e2d180dbe1a9718419cd3f191a0eaa04,
        type: 3}
      propertyPath: m_LocalRotation.x
      value: -0
      objectReference: {fileID: 0}
    - target: {fileID: 5183649388085743960, guid: e2d180dbe1a9718419cd3f191a0eaa04,
        type: 3}
      propertyPath: m_LocalRotation.y
      value: -0
      objectReference: {fileID: 0}
    - target: {fileID: 5183649388085743960, guid: e2d180dbe1a9718419cd3f191a0eaa04,
        type: 3}
      propertyPath: m_LocalRotation.z
      value: -0
      objectReference: {fileID: 0}
    - target: {fileID: 5183649388085743960, guid: e2d180dbe1a9718419cd3f191a0eaa04,
        type: 3}
      propertyPath: m_LocalRotation.w
      value: 1
      objectReference: {fileID: 0}
    - target: {fileID: 5183649388085743960, guid: e2d180dbe1a9718419cd3f191a0eaa04,
        type: 3}
      propertyPath: m_RootOrder
      value: 0
      objectReference: {fileID: 0}
    - target: {fileID: 5183649388085743960, guid: e2d180dbe1a9718419cd3f191a0eaa04,
        type: 3}
      propertyPath: m_LocalEulerAnglesHint.x
      value: 0
      objectReference: {fileID: 0}
    - target: {fileID: 5183649388085743960, guid: e2d180dbe1a9718419cd3f191a0eaa04,
        type: 3}
      propertyPath: m_LocalEulerAnglesHint.y
      value: 0
      objectReference: {fileID: 0}
    - target: {fileID: 5183649388085743960, guid: e2d180dbe1a9718419cd3f191a0eaa04,
        type: 3}
      propertyPath: m_LocalEulerAnglesHint.z
      value: 0
      objectReference: {fileID: 0}
    - target: {fileID: 5183649388085743963, guid: e2d180dbe1a9718419cd3f191a0eaa04,
        type: 3}
      propertyPath: fx
      value: 
      objectReference: {fileID: 1000010715882420, guid: 14d81e2c407975245973a11cdfbeb902,
        type: 3}
    - target: {fileID: 5183649388085743963, guid: e2d180dbe1a9718419cd3f191a0eaa04,
        type: 3}
      propertyPath: _team
      value: 2
      objectReference: {fileID: 0}
    - target: {fileID: 5183649388085743963, guid: e2d180dbe1a9718419cd3f191a0eaa04,
        type: 3}
      propertyPath: _level
      value: 0
      objectReference: {fileID: 0}
    - target: {fileID: 5183649388379437272, guid: e2d180dbe1a9718419cd3f191a0eaa04,
        type: 3}
      propertyPath: m_Materials.Array.data[0]
      value: 
      objectReference: {fileID: 2100000, guid: 178e7682096e401448bb892d2d5fc833, type: 2}
    - target: {fileID: 5183649389316025753, guid: e2d180dbe1a9718419cd3f191a0eaa04,
        type: 3}
      propertyPath: m_Color.r
      value: 1
      objectReference: {fileID: 0}
    - target: {fileID: 5183649389316025753, guid: e2d180dbe1a9718419cd3f191a0eaa04,
        type: 3}
      propertyPath: m_Color.g
      value: 0
      objectReference: {fileID: 0}
    - target: {fileID: 5183649389316025753, guid: e2d180dbe1a9718419cd3f191a0eaa04,
        type: 3}
      propertyPath: m_Color.b
      value: 0
      objectReference: {fileID: 0}
    - target: {fileID: 5183649389316025753, guid: e2d180dbe1a9718419cd3f191a0eaa04,
        type: 3}
      propertyPath: m_Intensity
      value: 0.9
      objectReference: {fileID: 0}
    m_RemovedComponents: []
  m_SourcePrefab: {fileID: 100100000, guid: e2d180dbe1a9718419cd3f191a0eaa04, type: 3}
